<?xml version="1.0" encoding="UTF-8"?>
<svg width="18px" height="18px" viewBox="0 0 18 18" version="1.1" xmlns="http://www.w3.org/2000/svg" xmlns:xlink="http://www.w3.org/1999/xlink">
    <title>Icons/no</title>
    <g id="Icons/no" stroke="none" stroke-width="1" fill="none" fill-rule="evenodd">
        <polygon id="Background" fill-rule="nonzero" points="0 0 18 0 18 18 0 18"></polygon>
        <polygon id="Path" fill="#E80000" transform="translate(9.000000, 9.000000) rotate(-315.000000) translate(-9.000000, -9.000000) " points="14 10 10 10 10 14 8 14 8 10 4 10 4 8 8 8 8 4 10 4 10 8 14 8"></polygon>
    </g>
</svg>